<?xml version="1.0" encoding="utf-8"?>
<!-- Generator: Adobe Illustrator 16.0.0, SVG Export Plug-In . SVG Version: 6.00 Build 0)  -->
<!DOCTYPE svg PUBLIC "-//W3C//DTD SVG 1.1//EN" "http://www.w3.org/Graphics/SVG/1.1/DTD/svg11.dtd">
<svg version="1.1" id="Layer_1" xmlns="http://www.w3.org/2000/svg" xmlns:xlink="http://www.w3.org/1999/xlink" x="0px" y="0px"
	 width="512px" height="512px" viewBox="64 -16 512 512" enable-background="new 64 -16 512 512" xml:space="preserve">
<g>
	<g>
		<g>
			<defs>
				<rect id="SVGID_1_" x="100.989" width="438.023" height="480"/>
			</defs>
			<clipPath id="SVGID_2_">
				<use xlink:href="#SVGID_1_"  overflow="visible"/>
			</clipPath>
			<path clip-path="url(#SVGID_2_)" fill="#58595B" d="M339.602,391.92h-41.026v-75.816c-22.467-5.646-42.443-21.875-59.434-48.305
				c-15.89-24.718-28.805-57.705-38.401-98.072c-61.307-25.681-99.275-71.654-99.275-120.449V35.152h79.571
				c-1.092-9.794-1.092-20.259-1.092-29.677v-5h278.291v5c0,5.667-0.473,11.795-0.929,17.722c-0.306,3.985-0.62,8.063-0.782,11.955
				h80.188v10.475c0,26.157-9.383,50.429-27.887,72.141c-17.13,20.1-41.155,36.952-71.439,50.116
				c-10.589,40.696-23.715,73.456-39.027,97.396c-16.673,26.063-36.421,42.481-58.757,48.858V391.92L339.602,391.92z
				 M308.574,381.92H329.6v-75.631l3.877-0.895c41.191-9.508,73.1-57.408,94.836-142.375l0.612-2.397l2.277-0.967
				c29.915-12.691,53.47-28.967,70.011-48.375c16.919-19.852,25.497-41.94,25.497-65.654v-0.475h-80.304v-5
				c0-5.667,0.472-11.795,0.928-17.722c0.306-3.985,0.62-8.064,0.783-11.955H189.949c0.034,9.599,0.257,19.893,1.751,28.855
				l0.97,5.822h-81.207v4.125c0,45.276,36.569,88.259,95.437,112.174l2.401,0.976l0.587,2.524
				c19.472,83.728,53.078,134.239,94.629,142.229l4.056,0.78L308.574,381.92L308.574,381.92z M431.767,154.833l1.961-9.806
				c5.503-27.508,9.153-56.948,12.715-87.208l0.52-4.416h74.13l-0.861,5.742c-5.48,36.546-34.438,69.85-79.44,91.374
				L431.767,154.833z M455.852,63.403c-2.993,25.289-6.112,49.979-10.396,73.516c34.507-18.734,57.284-44.954,63.801-73.516H455.852
				z M208.193,154.636l-8.908-4.083c-43.932-20.136-73.655-54.293-79.509-91.371l-0.913-5.78h74.444l0.277,4.707
				c1.806,30.697,7.258,59.77,12.687,86.918L208.193,154.636z M130.788,63.403c6.814,29.03,30.004,55.796,63.712,73.645
				c-4.526-23.216-8.764-47.784-10.593-73.645H130.788z"/>
		</g>
	</g>
	<g>
		<g>
			<defs>
				<rect id="SVGID_3_" x="100.989" width="438.023" height="480"/>
			</defs>
			<clipPath id="SVGID_4_">
				<use xlink:href="#SVGID_3_"  overflow="visible"/>
			</clipPath>
			<rect x="206.844" y="383.27" clip-path="url(#SVGID_4_)" fill="#53ABBD" width="224.487" height="45.629"/>
		</g>
	</g>
	<g>
		<g>
			<defs>
				<rect id="SVGID_5_" x="100.989" width="438.023" height="480"/>
			</defs>
			<clipPath id="SVGID_6_">
				<use xlink:href="#SVGID_5_"  overflow="visible"/>
			</clipPath>
			<path clip-path="url(#SVGID_6_)" fill="#505253" d="M431.331,433.897H206.844c-2.761,0-5-2.238-5-5V383.27c0-2.762,2.239-5,5-5
				h224.487c2.762,0,5,2.238,5,5v45.629C436.331,431.659,434.093,433.897,431.331,433.897z M211.844,423.897h214.487V388.27H211.844
				V423.897z"/>
		</g>
	</g>
	<g>
		<g>
			<defs>
				<rect id="SVGID_7_" x="100.989" width="438.023" height="480"/>
			</defs>
			<clipPath id="SVGID_8_">
				<use xlink:href="#SVGID_7_"  overflow="visible"/>
			</clipPath>
			<rect x="153.917" y="428.897" clip-path="url(#SVGID_8_)" fill="#53ABBD" width="330.342" height="45.627"/>
		</g>
	</g>
	<g>
		<g>
			<defs>
				<rect id="SVGID_9_" x="100.989" width="438.023" height="480"/>
			</defs>
			<clipPath id="SVGID_10_">
				<use xlink:href="#SVGID_9_"  overflow="visible"/>
			</clipPath>
			<path clip-path="url(#SVGID_10_)" fill="#505253" d="M484.259,479.524H153.917c-2.761,0-5-2.238-5-5v-45.628c0-2.762,2.239-5,5-5
				h330.342c2.763,0,5,2.238,5,5v45.628C489.259,477.286,487.021,479.524,484.259,479.524z M158.917,469.524h320.342v-35.628
				H158.917V469.524z"/>
		</g>
	</g>
</g>
</svg>
